altera-de1/bai03/cau2/simulation/qsim/cau2.msim.vcd
$comment
	File created using the following command:
		vcd file cau2.msim.vcd -direction
$end
$date
	Sun Oct 14 18:47:14 2018
$end
$version
	ModelSim Version 10.1d
$end
$timescale
	1ps
$end
$scope module cau2_vlg_vec_tst $end
$var reg 2 ! SW [1:0] $end
$var wire 1 " LEDR [1] $end
$var wire 1 # LEDR [0] $end
$var wire 1 $ sampler $end
$scope module i1 $end
$var wire 1 % gnd $end
$var wire 1 & vcc $end
$var wire 1 ' unknown $end
$var tri1 1 ( devclrn $end
$var tri1 1 ) devpor $end
$var tri1 1 * devoe $end
$var wire 1 + comb_3|comb~1_combout $end
$var wire 1 , comb_3|comb~0_combout $end
$var wire 1 - SW~combout [1] $end
$var wire 1 . SW~combout [0] $end
$upscope $end
$upscope $end
$enddefinitions $end
#0
$dumpvars
b0 !
x#
x"
x$
0%
1&
x'
1(
1)
1*
x+
x,
0.
0-
$end
#10000
b1 !
1.
0$
1,
1+
1"
0#
#20000
b11 !
b10 !
0.
1-
1$
#30000
b11 !
1.
0$
0+
0,
1#
0"
#40000
b1 !
b0 !
0.
0-
1$
#50000
b1 !
1.
0$
1,
1+
1"
0#
#60000
b11 !
b10 !
0.
1-
1$
#70000
b11 !
1.
0$
0+
0,
1#
0"
#80000
b1 !
b0 !
0.
0-
1$
#90000
b1 !
1.
0$
1,
1+
1"
0#
#100000
b11 !
b10 !
0.
1-
1$
#110000
b11 !
1.
0$
0+
0,
1#
0"
#120000
b1 !
b0 !
0.
0-
1$
#130000
b1 !
1.
0$
1,
1+
1"
0#
#140000
b11 !
b10 !
0.
1-
1$
#150000
b11 !
1.
0$
0+
0,
1#
0"
#160000
b1 !
b0 !
0.
0-
1$
#170000
b1 !
1.
0$
1,
1+
1"
0#
#180000
b11 !
b10 !
0.
1-
1$
#190000
b11 !
1.
0$
0+
0,
1#
0"
