altera-de1/bai03/cau5/simulation/qsim/cau5.msim.vcd
$comment
	File created using the following command:
		vcd file cau5.msim.vcd -direction
$end
$date
	Mon Oct 15 08:52:54 2018
$end
$version
	ModelSim Version 10.1d
$end
$timescale
	1ps
$end
$scope module cau5_vlg_vec_tst $end
$var reg 2 ! KEY [1:0] $end
$var reg 8 " SW [7:0] $end
$var wire 1 # HEX0 [6] $end
$var wire 1 $ HEX0 [5] $end
$var wire 1 % HEX0 [4] $end
$var wire 1 & HEX0 [3] $end
$var wire 1 ' HEX0 [2] $end
$var wire 1 ( HEX0 [1] $end
$var wire 1 ) HEX0 [0] $end
$var wire 1 * HEX1 [6] $end
$var wire 1 + HEX1 [5] $end
$var wire 1 , HEX1 [4] $end
$var wire 1 - HEX1 [3] $end
$var wire 1 . HEX1 [2] $end
$var wire 1 / HEX1 [1] $end
$var wire 1 0 HEX1 [0] $end
$var wire 1 1 HEX2 [6] $end
$var wire 1 2 HEX2 [5] $end
$var wire 1 3 HEX2 [4] $end
$var wire 1 4 HEX2 [3] $end
$var wire 1 5 HEX2 [2] $end
$var wire 1 6 HEX2 [1] $end
$var wire 1 7 HEX2 [0] $end
$var wire 1 8 HEX3 [6] $end
$var wire 1 9 HEX3 [5] $end
$var wire 1 : HEX3 [4] $end
$var wire 1 ; HEX3 [3] $end
$var wire 1 < HEX3 [2] $end
$var wire 1 = HEX3 [1] $end
$var wire 1 > HEX3 [0] $end
$var wire 1 ? sampler $end
$scope module i1 $end
$var wire 1 @ gnd $end
$var wire 1 A vcc $end
$var wire 1 B unknown $end
$var tri1 1 C devclrn $end
$var tri1 1 D devpor $end
$var tri1 1 E devoe $end
$var wire 1 F comb_7|Q~feeder_combout $end
$var wire 1 G comb_7|Q~regout $end
$var wire 1 H comb_5|Q~feeder_combout $end
$var wire 1 I comb_5|Q~regout $end
$var wire 1 J comb_4|WideOr6~0_combout $end
$var wire 1 K comb_4|WideOr5~0_combout $end
$var wire 1 L comb_4|WideOr4~0_combout $end
$var wire 1 M comb_4|WideOr3~0_combout $end
$var wire 1 N comb_4|WideOr2~0_combout $end
$var wire 1 O comb_4|WideOr1~0_combout $end
$var wire 1 P comb_4|WideOr0~0_combout $end
$var wire 1 Q comb_3|WideOr6~0_combout $end
$var wire 1 R comb_3|WideOr5~0_combout $end
$var wire 1 S comb_3|WideOr4~0_combout $end
$var wire 1 T comb_3|WideOr3~0_combout $end
$var wire 1 U comb_3|WideOr2~0_combout $end
$var wire 1 V comb_3|WideOr1~0_combout $end
$var wire 1 W comb_3|WideOr0~0_combout $end
$var wire 1 X SW~combout [7] $end
$var wire 1 Y SW~combout [6] $end
$var wire 1 Z SW~combout [5] $end
$var wire 1 [ SW~combout [4] $end
$var wire 1 \ SW~combout [3] $end
$var wire 1 ] SW~combout [2] $end
$var wire 1 ^ SW~combout [1] $end
$var wire 1 _ SW~combout [0] $end
$var wire 1 ` KEY~combout [1] $end
$var wire 1 a KEY~combout [0] $end
$upscope $end
$upscope $end
$enddefinitions $end
#0
$dumpvars
b0 !
b0 "
1)
0(
0'
0&
0%
0$
0#
10
0/
0.
0-
0,
0+
0*
17
06
05
04
03
02
01
1>
0=
0<
0;
0:
09
08
x?
0@
1A
xB
1C
1D
1E
0F
0G
0H
0I
0J
0K
0L
0M
0N
0O
0P
0Q
0R
0S
0T
0U
0V
0W
0_
0^
0]
0\
0[
0Z
0Y
0X
0a
0`
$end
#10000
b1 !
b1 "
1_
1a
0?
1W
1T
1S
1R
1H
18
1;
1<
1=
#20000
b11 !
b11 "
b10 !
b10 "
0_
1^
0a
1`
1?
0W
1U
0T
0S
1Q
0H
08
1:
0;
0<
0>
#30000
b11 !
b11 "
1_
1a
0?
0U
1S
1H
0:
1<
#40000
b111 "
b1 !
b101 "
b0 !
b100 "
0a
0`
0_
0^
1]
1?
1W
1T
0R
0H
18
1;
0=
#50000
b1 !
b101 "
1_
1a
0?
0W
1V
0T
1H
08
19
0;
#60000
b11 !
b111 "
b10 !
b110 "
0_
1^
0a
1`
1?
0S
0H
0<
#70000
b11 !
b111 "
1_
1a
0?
0V
1T
1S
1R
0Q
1H
09
1;
1<
1=
1>
#80000
b1111 "
b1011 "
b1 !
b1001 "
b0 !
b1000 "
0a
0`
0_
0^
0]
1\
1?
0T
0S
0R
1Q
0H
0;
0<
0=
0>
#90000
b1 !
b1001 "
1_
1a
0?
1S
1H
1<
#100000
b11 !
b1011 "
b10 !
b1010 "
0_
1^
0a
1`
1?
1W
1V
1U
1T
1R
0Q
0H
18
19
1:
1;
1=
1>
#110000
b11 !
b1011 "
1_
1a
0?
1H
#120000
b1111 "
b1 !
b1101 "
b0 !
b1100 "
0a
0`
0_
0^
1]
1?
0H
#130000
b1 !
b1101 "
1_
1a
0?
1H
#140000
b11 !
b1111 "
b10 !
b1110 "
0_
1^
0a
1`
1?
0H
#150000
b11 !
b1111 "
1_
1a
0?
1H
#160000
b11111 "
b10111 "
b10011 "
b1 !
b10001 "
b0 !
b10000 "
0a
0`
0_
0^
0]
0\
1[
1?
0W
0V
0U
0T
0S
0R
0H
1P
1M
1L
1K
1F
08
09
0:
0;
0<
0=
11
14
15
16
#170000
b1 !
b10001 "
1_
1a
0?
1W
1T
1S
1R
1H
18
1;
1<
1=
#180000
b11 !
b10011 "
b10 !
b10010 "
0_
1^
0a
1`
1?
0W
1U
0T
0S
1Q
0H
08
1:
0;
0<
0>
#190000
b11 !
b10011 "
1_
1a
0?
0U
1S
1H
0:
1<
1G
1#
1&
1'
1(
#200000
b10111 "
b1 !
b10101 "
b0 !
b10100 "
0a
0`
0_
0^
1]
1?
1W
1T
0R
0H
18
1;
0=
0G
0#
0&
0'
0(
#210000
b1 !
b10101 "
1_
1a
0?
0W
1V
0T
1H
08
19
0;
#220000
b11 !
b10111 "
b10 !
b10110 "
0_
1^
0a
1`
1?
0S
0H
0<
#230000
b11 !
b10111 "
1_
1a
0?
0V
1T
1S
1R
0Q
1H
09
1;
1<
1=
1>
1G
1#
1&
1'
1(
#240000
b11111 "
b11011 "
b1 !
b11001 "
b0 !
b11000 "
0a
0`
0_
0^
0]
1\
1?
0T
0S
0R
1Q
0H
0;
0<
0=
0>
0G
0#
0&
0'
0(
#250000
b1 !
b11001 "
1_
1a
0?
1S
1H
1<
#260000
b11 !
b11011 "
b10 !
b11010 "
0_
1^
0a
1`
1?
1W
1V
1U
1T
1R
0Q
0H
18
19
1:
1;
1=
1>
#270000
b11 !
b11011 "
1_
1a
0?
1H
1G
1#
1&
1'
1(
#280000
b11111 "
b1 !
b11101 "
b0 !
b11100 "
0a
0`
0_
0^
1]
1?
0H
0G
0#
0&
0'
0(
#290000
b1 !
b11101 "
1_
1a
0?
1H
#300000
b11 !
b11111 "
b10 !
b11110 "
0_
1^
0a
1`
1?
0H
#310000
b11 !
b11111 "
1_
1a
0?
1H
1G
1#
1&
1'
1(
#320000
b111111 "
b101111 "
b100111 "
b100011 "
b1 !
b100001 "
b0 !
b100000 "
0a
0`
0_
0^
0]
0\
0[
1Z
1?
0W
0V
0U
0T
0S
0R
0H
0P
1N
0M
0L
1J
0F
08
09
0:
0;
0<
0=
01
13
04
05
07
0G
0#
0&
0'
0(
#330000
b1 !
b100001 "
1_
1a
0?
1W
1T
1S
1R
1H
18
1;
1<
1=
#340000
b11 !
b100011 "
b10 !
b100010 "
0_
1^
0a
1`
1?
0W
1U
0T
0S
1Q
0H
08
1:
0;
0<
0>
#350000
b11 !
b100011 "
1_
1a
0?
0U
1S
1H
0:
1<
#360000
b100111 "
b1 !
b100101 "
b0 !
b100100 "
0a
0`
0_
0^
1]
1?
1W
1T
0R
0H
18
1;
0=
#370000
b1 !
b100101 "
1_
1a
0?
0W
1V
0T
1H
08
19
0;
#380000
b11 !
b100111 "
b10 !
b100110 "
0_
1^
0a
1`
1?
0S
0H
0<
#390000
b11 !
b100111 "
1_
1a
0?
0V
1T
1S
1R
0Q
1H
09
1;
1<
1=
1>
#400000
b101111 "
b101011 "
b1 !
b101001 "
b0 !
b101000 "
0a
0`
0_
0^
0]
1\
1?
0T
0S
0R
1Q
0H
0;
0<
0=
0>
#410000
b1 !
b101001 "
1_
1a
0?
1S
1H
1<
#420000
b11 !
b101011 "
b10 !
b101010 "
0_
1^
0a
1`
1?
1W
1V
1U
1T
1R
0Q
0H
18
19
1:
1;
1=
1>
#430000
b11 !
b101011 "
1_
1a
0?
1H
#440000
b101111 "
b1 !
b101101 "
b0 !
b101100 "
0a
0`
0_
0^
1]
1?
0H
#450000
b1 !
b101101 "
1_
1a
0?
1H
#460000
b11 !
b101111 "
b10 !
b101110 "
0_
1^
0a
1`
1?
0H
#470000
b11 !
b101111 "
1_
1a
0?
1H
#480000
b111111 "
b110111 "
b110011 "
b1 !
b110001 "
b0 !
b110000 "
0a
0`
0_
0^
0]
0\
1[
1?
0W
0V
0U
0T
0S
0R
0H
0N
1L
1F
08
09
0:
0;
0<
0=
03
15
#490000
b1 !
b110001 "
1_
1a
0?
1W
1T
1S
1R
1H
18
1;
1<
1=
#500000
b11 !
b110011 "
b10 !
b110010 "
0_
1^
0a
1`
1?
0W
1U
0T
0S
1Q
0H
08
1:
0;
0<
0>
#510000
b11 !
b110011 "
1_
1a
0?
0U
1S
1H
0:
1<
1G
1#
1&
1'
1(
#520000
b110111 "
b1 !
b110101 "
b0 !
b110100 "
0a
0`
0_
0^
1]
1?
1W
1T
0R
0H
18
1;
0=
0G
0#
0&
0'
0(
#530000
b1 !
b110101 "
1_
1a
0?
0W
1V
0T
1H
08
19
0;
#540000
b11 !
b110111 "
b10 !
b110110 "
0_
1^
0a
1`
1?
0S
0H
0<
#550000
b11 !
b110111 "
1_
1a
0?
0V
1T
1S
1R
0Q
1H
09
1;
1<
1=
1>
1G
1#
1&
1'
1(
#560000
b111111 "
b111011 "
b1 !
b111001 "
b0 !
b111000 "
0a
0`
0_
0^
0]
1\
1?
0T
0S
0R
1Q
0H
0;
0<
0=
0>
0G
0#
0&
0'
0(
#570000
b1 !
b111001 "
1_
1a
0?
1S
1H
1<
#580000
b11 !
b111011 "
b10 !
b111010 "
0_
1^
0a
1`
1?
1W
1V
1U
1T
1R
0Q
0H
18
19
1:
1;
1=
1>
#590000
b11 !
b111011 "
1_
1a
0?
1H
1G
1#
1&
1'
1(
#600000
b111111 "
b1 !
b111101 "
b0 !
b111100 "
0a
0`
0_
0^
1]
1?
0H
0G
0#
0&
0'
0(
#610000
b1 !
b111101 "
1_
1a
0?
1H
#620000
b11 !
b111111 "
b10 !
b111110 "
0_
1^
0a
1`
1?
0H
#630000
b11 !
b111111 "
1_
1a
0?
1H
1G
1#
1&
1'
1(
#640000
b1111111 "
b1011111 "
b1001111 "
b1000111 "
b1000011 "
b1 !
b1000001 "
b0 !
b1000000 "
0a
0`
0_
0^
0]
0\
0[
0Z
1Y
1?
0W
0V
0U
0T
0S
0R
0H
1P
1M
0K
0F
08
09
0:
0;
0<
0=
11
14
06
0G
0#
0&
0'
0(
#650000
b1 !
b1000001 "
1_
1a
0?
1W
1T
1S
1R
1H
18
1;
1<
1=
#660000
b11 !
b1000011 "
b10 !
b1000010 "
0_
1^
0a
1`
1?
0W
1U
0T
0S
1Q
0H
08
1:
0;
0<
0>
#670000
b11 !
b1000011 "
1_
1a
0?
0U
1S
1H
0:
1<
#680000
b1000111 "
b1 !
b1000101 "
b0 !
b1000100 "
0a
0`
0_
0^
1]
1?
1W
1T
0R
0H
18
1;
0=
#690000
b1 !
b1000101 "
1_
1a
0?
0W
1V
0T
1H
08
19
0;
#700000
b11 !
b1000111 "
b10 !
b1000110 "
0_
1^
0a
1`
1?
0S
0H
0<
#710000
b11 !
b1000111 "
1_
1a
0?
0V
1T
1S
1R
0Q
1H
09
1;
1<
1=
1>
#720000
b1001111 "
b1001011 "
b1 !
b1001001 "
b0 !
b1001000 "
0a
0`
0_
0^
0]
1\
1?
0T
0S
0R
1Q
0H
0;
0<
0=
0>
#730000
b1 !
b1001001 "
1_
1a
0?
1S
1H
1<
#740000
b11 !
b1001011 "
b10 !
b1001010 "
0_
1^
0a
1`
1?
1W
1V
1U
1T
1R
0Q
0H
18
19
1:
1;
1=
1>
#750000
b11 !
b1001011 "
1_
1a
0?
1H
#760000
b1001111 "
b1 !
b1001101 "
b0 !
b1001100 "
0a
0`
0_
0^
1]
1?
0H
#770000
b1 !
b1001101 "
1_
1a
0?
1H
#780000
b11 !
b1001111 "
b10 !
b1001110 "
0_
1^
0a
1`
1?
0H
#790000
b11 !
b1001111 "
1_
1a
0?
1H
#800000
b1011111 "
b1010111 "
b1010011 "
b1 !
b1010001 "
b0 !
b1010000 "
0a
0`
0_
0^
0]
0\
1[
1?
0W
0V
0U
0T
0S
0R
0H
0P
1O
0M
1F
08
09
0:
0;
0<
0=
01
12
04
#810000
b1 !
b1010001 "
1_
1a
0?
1W
1T
1S
1R
1H
18
1;
1<
1=
#820000
b11 !
b1010011 "
b10 !
b1010010 "
0_
1^
0a
1`
1?
0W
1U
0T
0S
1Q
0H
08
1:
0;
0<
0>
#830000
b11 !
b1010011 "
1_
1a
0?
0U
1S
1H
0:
1<
1G
1#
1&
1'
1(
#840000
b1010111 "
b1 !
b1010101 "
b0 !
b1010100 "
0a
0`
0_
0^
1]
1?
1W
1T
0R
0H
18
1;
0=
0G
0#
0&
0'
0(
#850000
b1 !
b1010101 "
1_
1a
0?
0W
1V
0T
1H
08
19
0;
#860000
b11 !
b1010111 "
b10 !
b1010110 "
0_
1^
0a
1`
1?
0S
0H
0<
#870000
b11 !
b1010111 "
1_
1a
0?
0V
1T
1S
1R
0Q
1H
09
1;
1<
1=
1>
1G
1#
1&
1'
1(
#880000
b1011111 "
b1011011 "
b1 !
b1011001 "
b0 !
b1011000 "
0a
0`
0_
0^
0]
1\
1?
0T
0S
0R
1Q
0H
0;
0<
0=
0>
0G
0#
0&
0'
0(
#890000
b1 !
b1011001 "
1_
1a
0?
1S
1H
1<
#900000
b11 !
b1011011 "
b10 !
b1011010 "
0_
1^
0a
1`
1?
1W
1V
1U
1T
1R
0Q
0H
18
19
1:
1;
1=
1>
#910000
b11 !
b1011011 "
1_
1a
0?
1H
1G
1#
1&
1'
1(
#920000
b1011111 "
b1 !
b1011101 "
b0 !
b1011100 "
0a
0`
0_
0^
1]
1?
0H
0G
0#
0&
0'
0(
#930000
b1 !
b1011101 "
1_
1a
0?
1H
#940000
b11 !
b1011111 "
b10 !
b1011110 "
0_
1^
0a
1`
1?
0H
#950000
b11 !
b1011111 "
1_
1a
0?
1H
1G
1#
1&
1'
1(
#960000
b1111111 "
b1101111 "
b1100111 "
b1100011 "
b1 !
b1100001 "
b0 !
b1100000 "
0a
0`
0_
0^
0]
0\
0[
1Z
1?
0W
0V
0U
0T
0S
0R
0H
0L
0F
08
09
0:
0;
0<
0=
05
0G
0#
0&
0'
0(
#970000
b1 !
b1100001 "
1_
1a
0?
1W
1T
1S
1R
1H
18
1;
1<
1=
#980000
b11 !
b1100011 "
b10 !
b1100010 "
0_
1^
0a
1`
1?
0W
1U
0T
0S
1Q
0H
08
1:
0;
0<
0>
#990000
b11 !
b1100011 "
1_
1a
0?
0U
1S
1H
0:
1<
